<svg width="24" height="18" viewBox="0 0 24 18" fill="none" xmlns="http://www.w3.org/2000/svg">
<path d="M19.6364 4H10.9091V10H19.6364V4ZM21.8182 0H2.18182C0.981818 0 0 0.9 0 2V16C0 17.1 0.981818 17.98 2.18182 17.98H21.8182C23.0182 17.98 24 17.1 24 16V2C24 0.9 23.0182 0 21.8182 0ZM21.8182 16.01H2.18182V1.98H21.8182V16.01V16.01Z" fill="#0BCAD4"/>
</svg>
