<svg width="14" height="17" viewBox="0 0 14 17" fill="none" xmlns="http://www.w3.org/2000/svg">
<path d="M7 0C3.13 0 0 2.6605 0 5.95C0 10.4125 7 17 7 17C7 17 14 10.4125 14 5.95C14 2.6605 10.87 0 7 0ZM7 8.075C5.62 8.075 4.5 7.123 4.5 5.95C4.5 4.777 5.62 3.825 7 3.825C8.38 3.825 9.5 4.777 9.5 5.95C9.5 7.123 8.38 8.075 7 8.075Z" fill="#0BCAD4"/>
</svg>
